-- Merging decision tree log ---
manifest
ADDED from F:\OfficeWorkspace\MedApp\transporttrackerexample\src\main\AndroidManifest.xml:2:1-61:12
INJECTED from F:\OfficeWorkspace\MedApp\transporttrackerexample\src\main\AndroidManifest.xml:2:1-61:12
INJECTED from F:\OfficeWorkspace\MedApp\transporttrackerexample\src\main\AndroidManifest.xml:2:1-61:12
INJECTED from F:\OfficeWorkspace\MedApp\transporttrackerexample\src\main\AndroidManifest.xml:2:1-61:12
MERGED from [com.android.support:design:26.0.0-alpha1] C:\Users\PDighe\.gradle\caches\transforms-1\files-1.1\design-26.0.0-alpha1.aar\ce803f48da20d859326dc5a5497245da\AndroidManifest.xml:17:1-31:12
MERGED from [com.android.support:appcompat-v7:26.0.0-alpha1] C:\Users\PDighe\.gradle\caches\transforms-1\files-1.1\appcompat-v7-26.0.0-alpha1.aar\a30cdff0a1ac42dea028b934a7b40148\AndroidManifest.xml:17:1-31:12
MERGED from [com.android.support:cardview-v7:26.0.0-alpha1] C:\Users\PDighe\.gradle\caches\transforms-1\files-1.1\cardview-v7-26.0.0-alpha1.aar\430f6152cdddc270f42e7a849e1175c2\AndroidManifest.xml:17:1-28:12
MERGED from [com.google.android.gms:play-services-gcm:11.0.2] C:\Users\PDighe\.gradle\caches\transforms-1\files-1.1\play-services-gcm-11.0.2.aar\8f2c00b9a293cc88ae9d95a52e5523ba\AndroidManifest.xml:16:1-24:12
MERGED from [com.google.android.gms:play-services-location:11.0.2] C:\Users\PDighe\.gradle\caches\transforms-1\files-1.1\play-services-location-11.0.2.aar\ffd8364c314df765051b6a62052ed020\AndroidManifest.xml:2:1-5:12
MERGED from [com.google.firebase:firebase-auth:11.0.2] C:\Users\PDighe\.gradle\caches\transforms-1\files-1.1\firebase-auth-11.0.2.aar\acec04f03363d799815ac25aeb090469\AndroidManifest.xml:16:1-21:12
MERGED from [com.google.firebase:firebase-config:11.0.2] C:\Users\PDighe\.gradle\caches\transforms-1\files-1.1\firebase-config-11.0.2.aar\82de3e9e6e690e18f2daf2d5ba0d617d\AndroidManifest.xml:16:1-19:12
MERGED from [com.google.firebase:firebase-crash:11.0.2] C:\Users\PDighe\.gradle\caches\transforms-1\files-1.1\firebase-crash-11.0.2.aar\edf63b3cb24433b9e8569ba31cf9469a\AndroidManifest.xml:16:1-25:12
MERGED from [com.google.firebase:firebase-database:11.0.2] C:\Users\PDighe\.gradle\caches\transforms-1\files-1.1\firebase-database-11.0.2.aar\3580249bdd37c5288d2408a2ca756a7b\AndroidManifest.xml:2:1-4:12
MERGED from [com.google.firebase:firebase-core:11.0.2] C:\Users\PDighe\.gradle\caches\transforms-1\files-1.1\firebase-core-11.0.2.aar\0bc3f913a5b516fe9d1f7d93a1b19048\AndroidManifest.xml:2:1-6:12
MERGED from [com.android.support:animated-vector-drawable:26.0.0-alpha1] C:\Users\PDighe\.gradle\caches\transforms-1\files-1.1\animated-vector-drawable-26.0.0-alpha1.aar\0e8d70a75522698f261ce4a5599d7e58\AndroidManifest.xml:17:1-28:12
MERGED from [com.android.support:support-vector-drawable:26.0.0-alpha1] C:\Users\PDighe\.gradle\caches\transforms-1\files-1.1\support-vector-drawable-26.0.0-alpha1.aar\e3aed4bd06cbfe304e9e6155f6f67d2f\AndroidManifest.xml:17:1-28:12
MERGED from [com.android.support:recyclerview-v7:26.0.0-alpha1] C:\Users\PDighe\.gradle\caches\transforms-1\files-1.1\recyclerview-v7-26.0.0-alpha1.aar\b132bfc5efe054d1348934ff45753e56\AndroidManifest.xml:17:1-26:12
MERGED from [com.android.support:transition:26.0.0-alpha1] C:\Users\PDighe\.gradle\caches\transforms-1\files-1.1\transition-26.0.0-alpha1.aar\dd198a0080d5c81cdd2f8bc6f5204257\AndroidManifest.xml:17:1-28:12
MERGED from [com.google.android.gms:play-services-iid:11.0.2] C:\Users\PDighe\.gradle\caches\transforms-1\files-1.1\play-services-iid-11.0.2.aar\95d63ddc2181c858a4df341d222d07b4\AndroidManifest.xml:16:1-24:12
MERGED from [com.google.android.gms:play-services-base:11.0.2] C:\Users\PDighe\.gradle\caches\transforms-1\files-1.1\play-services-base-11.0.2.aar\ede16186c76a5505b4547a5989540081\AndroidManifest.xml:16:1-21:12
MERGED from [com.google.firebase:firebase-analytics:11.0.2] C:\Users\PDighe\.gradle\caches\transforms-1\files-1.1\firebase-analytics-11.0.2.aar\74efeec40462abe45a578167cd69a802\AndroidManifest.xml:16:1-35:12
MERGED from [com.google.firebase:firebase-analytics-impl:11.0.2] C:\Users\PDighe\.gradle\caches\transforms-1\files-1.1\firebase-analytics-impl-11.0.2.aar\c6bcf72c1b054d64d39d0537ee15dac3\AndroidManifest.xml:16:1-29:12
MERGED from [com.google.firebase:firebase-iid:11.0.2] C:\Users\PDighe\.gradle\caches\transforms-1\files-1.1\firebase-iid-11.0.2.aar\17a9640590974cc17a8a895f34e0599b\AndroidManifest.xml:16:1-50:12
MERGED from [com.google.firebase:firebase-database-connection:11.0.2] C:\Users\PDighe\.gradle\caches\transforms-1\files-1.1\firebase-database-connection-11.0.2.aar\69da46cb41da3fc483014a370c789514\AndroidManifest.xml:2:1-4:12
MERGED from [com.google.firebase:firebase-common:11.0.2] C:\Users\PDighe\.gradle\caches\transforms-1\files-1.1\firebase-common-11.0.2.aar\95422b5cc8fe55cb1bf29e73fe87693c\AndroidManifest.xml:2:1-8:12
MERGED from [com.google.android.gms:play-services-tasks:11.0.2] C:\Users\PDighe\.gradle\caches\transforms-1\files-1.1\play-services-tasks-11.0.2.aar\bbb4fd1d5c99b874b4a2faad004ebc82\AndroidManifest.xml:2:1-5:12
MERGED from [com.google.android.gms:play-services-basement:11.0.2] C:\Users\PDighe\.gradle\caches\transforms-1\files-1.1\play-services-basement-11.0.2.aar\295935c265f5256c7bdec92ebfb86b54\AndroidManifest.xml:16:1-23:12
MERGED from [com.android.support:support-v4:26.0.0-alpha1] C:\Users\PDighe\.gradle\caches\transforms-1\files-1.1\support-v4-26.0.0-alpha1.aar\16c60d6753e60cc9b3752727f521211b\AndroidManifest.xml:17:1-31:12
MERGED from [com.android.support:support-fragment:26.0.0-alpha1] C:\Users\PDighe\.gradle\caches\transforms-1\files-1.1\support-fragment-26.0.0-alpha1.aar\9d694248a9b8c5b3b78c11299306d3b3\AndroidManifest.xml:17:1-31:12
MERGED from [com.android.support:support-core-ui:26.0.0-alpha1] C:\Users\PDighe\.gradle\caches\transforms-1\files-1.1\support-core-ui-26.0.0-alpha1.aar\1dd68dda8f29c663f8fb3d58e48ae690\AndroidManifest.xml:17:1-31:12
MERGED from [com.android.support:support-media-compat:26.0.0-alpha1] C:\Users\PDighe\.gradle\caches\transforms-1\files-1.1\support-media-compat-26.0.0-alpha1.aar\0724c74f167535abffc0c1c474165af3\AndroidManifest.xml:17:1-31:12
MERGED from [com.android.support:support-core-utils:26.0.0-alpha1] C:\Users\PDighe\.gradle\caches\transforms-1\files-1.1\support-core-utils-26.0.0-alpha1.aar\5a3e307d10b3c898a438d7f178dcbc65\AndroidManifest.xml:17:1-31:12
MERGED from [com.android.support:support-compat:26.0.0-alpha1] C:\Users\PDighe\.gradle\caches\transforms-1\files-1.1\support-compat-26.0.0-alpha1.aar\4a6b2bdde9763fd926e1277bab4f0aa1\AndroidManifest.xml:17:1-31:12
INJECTED from F:\OfficeWorkspace\MedApp\transporttrackerexample\src\main\AndroidManifest.xml:2:1-61:12
INJECTED from F:\OfficeWorkspace\MedApp\transporttrackerexample\src\main\AndroidManifest.xml:2:1-61:12
INJECTED from F:\OfficeWorkspace\MedApp\transporttrackerexample\src\main\AndroidManifest.xml:2:1-61:12
	package
		ADDED from F:\OfficeWorkspace\MedApp\transporttrackerexample\src\main\AndroidManifest.xml:2:11-48
		INJECTED from F:\OfficeWorkspace\MedApp\transporttrackerexample\src\main\AndroidManifest.xml
		INJECTED from F:\OfficeWorkspace\MedApp\transporttrackerexample\src\main\AndroidManifest.xml
	android:versionName
		INJECTED from F:\OfficeWorkspace\MedApp\transporttrackerexample\src\main\AndroidManifest.xml
		ADDED from F:\OfficeWorkspace\MedApp\transporttrackerexample\src\main\AndroidManifest.xml:2:1-61:12
		INJECTED from F:\OfficeWorkspace\MedApp\transporttrackerexample\src\main\AndroidManifest.xml
	android:versionCode
		INJECTED from F:\OfficeWorkspace\MedApp\transporttrackerexample\src\main\AndroidManifest.xml
		ADDED from F:\OfficeWorkspace\MedApp\transporttrackerexample\src\main\AndroidManifest.xml:2:1-61:12
		INJECTED from F:\OfficeWorkspace\MedApp\transporttrackerexample\src\main\AndroidManifest.xml
	xmlns:android
		ADDED from F:\OfficeWorkspace\MedApp\transporttrackerexample\src\main\AndroidManifest.xml:3:11-69
uses-permission#android.permission.ACCESS_FINE_LOCATION
ADDED from F:\OfficeWorkspace\MedApp\transporttrackerexample\src\main\AndroidManifest.xml:5:5-78
	android:name
		ADDED from F:\OfficeWorkspace\MedApp\transporttrackerexample\src\main\AndroidManifest.xml:5:22-76
uses-permission#android.permission.ACCESS_NETWORK_STATE
ADDED from F:\OfficeWorkspace\MedApp\transporttrackerexample\src\main\AndroidManifest.xml:6:5-78
MERGED from [com.google.firebase:firebase-analytics:11.0.2] C:\Users\PDighe\.gradle\caches\transforms-1\files-1.1\firebase-analytics-11.0.2.aar\74efeec40462abe45a578167cd69a802\AndroidManifest.xml:21:5-78
MERGED from [com.google.firebase:firebase-analytics:11.0.2] C:\Users\PDighe\.gradle\caches\transforms-1\files-1.1\firebase-analytics-11.0.2.aar\74efeec40462abe45a578167cd69a802\AndroidManifest.xml:21:5-78
MERGED from [com.google.firebase:firebase-analytics-impl:11.0.2] C:\Users\PDighe\.gradle\caches\transforms-1\files-1.1\firebase-analytics-impl-11.0.2.aar\c6bcf72c1b054d64d39d0537ee15dac3\AndroidManifest.xml:21:5-78
MERGED from [com.google.firebase:firebase-analytics-impl:11.0.2] C:\Users\PDighe\.gradle\caches\transforms-1\files-1.1\firebase-analytics-impl-11.0.2.aar\c6bcf72c1b054d64d39d0537ee15dac3\AndroidManifest.xml:21:5-78
MERGED from [com.google.firebase:firebase-iid:11.0.2] C:\Users\PDighe\.gradle\caches\transforms-1\files-1.1\firebase-iid-11.0.2.aar\17a9640590974cc17a8a895f34e0599b\AndroidManifest.xml:19:5-78
MERGED from [com.google.firebase:firebase-iid:11.0.2] C:\Users\PDighe\.gradle\caches\transforms-1\files-1.1\firebase-iid-11.0.2.aar\17a9640590974cc17a8a895f34e0599b\AndroidManifest.xml:19:5-78
	android:name
		ADDED from F:\OfficeWorkspace\MedApp\transporttrackerexample\src\main\AndroidManifest.xml:6:22-76
uses-permission#android.permission.INTERNET
ADDED from F:\OfficeWorkspace\MedApp\transporttrackerexample\src\main\AndroidManifest.xml:7:5-66
MERGED from [com.google.android.gms:play-services-gcm:11.0.2] C:\Users\PDighe\.gradle\caches\transforms-1\files-1.1\play-services-gcm-11.0.2.aar\8f2c00b9a293cc88ae9d95a52e5523ba\AndroidManifest.xml:21:5-66
MERGED from [com.google.android.gms:play-services-gcm:11.0.2] C:\Users\PDighe\.gradle\caches\transforms-1\files-1.1\play-services-gcm-11.0.2.aar\8f2c00b9a293cc88ae9d95a52e5523ba\AndroidManifest.xml:21:5-66
MERGED from [com.google.firebase:firebase-crash:11.0.2] C:\Users\PDighe\.gradle\caches\transforms-1\files-1.1\firebase-crash-11.0.2.aar\edf63b3cb24433b9e8569ba31cf9469a\AndroidManifest.xml:18:5-66
MERGED from [com.google.firebase:firebase-crash:11.0.2] C:\Users\PDighe\.gradle\caches\transforms-1\files-1.1\firebase-crash-11.0.2.aar\edf63b3cb24433b9e8569ba31cf9469a\AndroidManifest.xml:18:5-66
MERGED from [com.google.android.gms:play-services-iid:11.0.2] C:\Users\PDighe\.gradle\caches\transforms-1\files-1.1\play-services-iid-11.0.2.aar\95d63ddc2181c858a4df341d222d07b4\AndroidManifest.xml:21:5-66
MERGED from [com.google.android.gms:play-services-iid:11.0.2] C:\Users\PDighe\.gradle\caches\transforms-1\files-1.1\play-services-iid-11.0.2.aar\95d63ddc2181c858a4df341d222d07b4\AndroidManifest.xml:21:5-66
MERGED from [com.google.firebase:firebase-analytics:11.0.2] C:\Users\PDighe\.gradle\caches\transforms-1\files-1.1\firebase-analytics-11.0.2.aar\74efeec40462abe45a578167cd69a802\AndroidManifest.xml:20:5-66
MERGED from [com.google.firebase:firebase-analytics:11.0.2] C:\Users\PDighe\.gradle\caches\transforms-1\files-1.1\firebase-analytics-11.0.2.aar\74efeec40462abe45a578167cd69a802\AndroidManifest.xml:20:5-66
MERGED from [com.google.firebase:firebase-analytics-impl:11.0.2] C:\Users\PDighe\.gradle\caches\transforms-1\files-1.1\firebase-analytics-impl-11.0.2.aar\c6bcf72c1b054d64d39d0537ee15dac3\AndroidManifest.xml:20:5-66
MERGED from [com.google.firebase:firebase-analytics-impl:11.0.2] C:\Users\PDighe\.gradle\caches\transforms-1\files-1.1\firebase-analytics-impl-11.0.2.aar\c6bcf72c1b054d64d39d0537ee15dac3\AndroidManifest.xml:20:5-66
MERGED from [com.google.firebase:firebase-iid:11.0.2] C:\Users\PDighe\.gradle\caches\transforms-1\files-1.1\firebase-iid-11.0.2.aar\17a9640590974cc17a8a895f34e0599b\AndroidManifest.xml:20:5-66
MERGED from [com.google.firebase:firebase-iid:11.0.2] C:\Users\PDighe\.gradle\caches\transforms-1\files-1.1\firebase-iid-11.0.2.aar\17a9640590974cc17a8a895f34e0599b\AndroidManifest.xml:20:5-66
	android:name
		ADDED from F:\OfficeWorkspace\MedApp\transporttrackerexample\src\main\AndroidManifest.xml:7:22-64
uses-permission#android.permission.RECEIVE_BOOT_COMPLETED
ADDED from F:\OfficeWorkspace\MedApp\transporttrackerexample\src\main\AndroidManifest.xml:8:5-80
	android:name
		ADDED from F:\OfficeWorkspace\MedApp\transporttrackerexample\src\main\AndroidManifest.xml:8:22-78
uses-permission#android.permission.WRITE_EXTERNAL_STORAGE
ADDED from F:\OfficeWorkspace\MedApp\transporttrackerexample\src\main\AndroidManifest.xml:9:5-80
	android:name
		ADDED from F:\OfficeWorkspace\MedApp\transporttrackerexample\src\main\AndroidManifest.xml:9:22-78
uses-permission#android.permission.REQUEST_IGNORE_BATTERY_OPTIMIZATIONS
ADDED from F:\OfficeWorkspace\MedApp\transporttrackerexample\src\main\AndroidManifest.xml:10:5-94
	android:name
		ADDED from F:\OfficeWorkspace\MedApp\transporttrackerexample\src\main\AndroidManifest.xml:10:22-92
uses-permission#android.permission.WAKE_LOCK
ADDED from F:\OfficeWorkspace\MedApp\transporttrackerexample\src\main\AndroidManifest.xml:11:5-68
MERGED from [com.google.firebase:firebase-analytics:11.0.2] C:\Users\PDighe\.gradle\caches\transforms-1\files-1.1\firebase-analytics-11.0.2.aar\74efeec40462abe45a578167cd69a802\AndroidManifest.xml:22:5-67
MERGED from [com.google.firebase:firebase-analytics:11.0.2] C:\Users\PDighe\.gradle\caches\transforms-1\files-1.1\firebase-analytics-11.0.2.aar\74efeec40462abe45a578167cd69a802\AndroidManifest.xml:22:5-67
MERGED from [com.google.firebase:firebase-analytics-impl:11.0.2] C:\Users\PDighe\.gradle\caches\transforms-1\files-1.1\firebase-analytics-impl-11.0.2.aar\c6bcf72c1b054d64d39d0537ee15dac3\AndroidManifest.xml:22:5-67
MERGED from [com.google.firebase:firebase-analytics-impl:11.0.2] C:\Users\PDighe\.gradle\caches\transforms-1\files-1.1\firebase-analytics-impl-11.0.2.aar\c6bcf72c1b054d64d39d0537ee15dac3\AndroidManifest.xml:22:5-67
MERGED from [com.google.firebase:firebase-iid:11.0.2] C:\Users\PDighe\.gradle\caches\transforms-1\files-1.1\firebase-iid-11.0.2.aar\17a9640590974cc17a8a895f34e0599b\AndroidManifest.xml:21:5-67
MERGED from [com.google.firebase:firebase-iid:11.0.2] C:\Users\PDighe\.gradle\caches\transforms-1\files-1.1\firebase-iid-11.0.2.aar\17a9640590974cc17a8a895f34e0599b\AndroidManifest.xml:21:5-67
	android:name
		ADDED from F:\OfficeWorkspace\MedApp\transporttrackerexample\src\main\AndroidManifest.xml:11:22-65
application
ADDED from F:\OfficeWorkspace\MedApp\transporttrackerexample\src\main\AndroidManifest.xml:13:5-59:19
MERGED from [com.android.support:design:26.0.0-alpha1] C:\Users\PDighe\.gradle\caches\transforms-1\files-1.1\design-26.0.0-alpha1.aar\ce803f48da20d859326dc5a5497245da\AndroidManifest.xml:29:5-20
MERGED from [com.android.support:design:26.0.0-alpha1] C:\Users\PDighe\.gradle\caches\transforms-1\files-1.1\design-26.0.0-alpha1.aar\ce803f48da20d859326dc5a5497245da\AndroidManifest.xml:29:5-20
MERGED from [com.android.support:appcompat-v7:26.0.0-alpha1] C:\Users\PDighe\.gradle\caches\transforms-1\files-1.1\appcompat-v7-26.0.0-alpha1.aar\a30cdff0a1ac42dea028b934a7b40148\AndroidManifest.xml:29:5-20
MERGED from [com.android.support:appcompat-v7:26.0.0-alpha1] C:\Users\PDighe\.gradle\caches\transforms-1\files-1.1\appcompat-v7-26.0.0-alpha1.aar\a30cdff0a1ac42dea028b934a7b40148\AndroidManifest.xml:29:5-20
MERGED from [com.android.support:cardview-v7:26.0.0-alpha1] C:\Users\PDighe\.gradle\caches\transforms-1\files-1.1\cardview-v7-26.0.0-alpha1.aar\430f6152cdddc270f42e7a849e1175c2\AndroidManifest.xml:26:5-20
MERGED from [com.android.support:cardview-v7:26.0.0-alpha1] C:\Users\PDighe\.gradle\caches\transforms-1\files-1.1\cardview-v7-26.0.0-alpha1.aar\430f6152cdddc270f42e7a849e1175c2\AndroidManifest.xml:26:5-20
MERGED from [com.google.android.gms:play-services-gcm:11.0.2] C:\Users\PDighe\.gradle\caches\transforms-1\files-1.1\play-services-gcm-11.0.2.aar\8f2c00b9a293cc88ae9d95a52e5523ba\AndroidManifest.xml:23:5-19
MERGED from [com.google.android.gms:play-services-gcm:11.0.2] C:\Users\PDighe\.gradle\caches\transforms-1\files-1.1\play-services-gcm-11.0.2.aar\8f2c00b9a293cc88ae9d95a52e5523ba\AndroidManifest.xml:23:5-19
MERGED from [com.google.android.gms:play-services-location:11.0.2] C:\Users\PDighe\.gradle\caches\transforms-1\files-1.1\play-services-location-11.0.2.aar\ffd8364c314df765051b6a62052ed020\AndroidManifest.xml:4:5-19
MERGED from [com.google.android.gms:play-services-location:11.0.2] C:\Users\PDighe\.gradle\caches\transforms-1\files-1.1\play-services-location-11.0.2.aar\ffd8364c314df765051b6a62052ed020\AndroidManifest.xml:4:5-19
MERGED from [com.google.firebase:firebase-auth:11.0.2] C:\Users\PDighe\.gradle\caches\transforms-1\files-1.1\firebase-auth-11.0.2.aar\acec04f03363d799815ac25aeb090469\AndroidManifest.xml:19:5-20:19
MERGED from [com.google.firebase:firebase-auth:11.0.2] C:\Users\PDighe\.gradle\caches\transforms-1\files-1.1\firebase-auth-11.0.2.aar\acec04f03363d799815ac25aeb090469\AndroidManifest.xml:19:5-20:19
MERGED from [com.google.firebase:firebase-config:11.0.2] C:\Users\PDighe\.gradle\caches\transforms-1\files-1.1\firebase-config-11.0.2.aar\82de3e9e6e690e18f2daf2d5ba0d617d\AndroidManifest.xml:18:5-19
MERGED from [com.google.firebase:firebase-config:11.0.2] C:\Users\PDighe\.gradle\caches\transforms-1\files-1.1\firebase-config-11.0.2.aar\82de3e9e6e690e18f2daf2d5ba0d617d\AndroidManifest.xml:18:5-19
MERGED from [com.google.firebase:firebase-crash:11.0.2] C:\Users\PDighe\.gradle\caches\transforms-1\files-1.1\firebase-crash-11.0.2.aar\edf63b3cb24433b9e8569ba31cf9469a\AndroidManifest.xml:22:5-23:19
MERGED from [com.google.firebase:firebase-crash:11.0.2] C:\Users\PDighe\.gradle\caches\transforms-1\files-1.1\firebase-crash-11.0.2.aar\edf63b3cb24433b9e8569ba31cf9469a\AndroidManifest.xml:22:5-23:19
MERGED from [com.google.firebase:firebase-core:11.0.2] C:\Users\PDighe\.gradle\caches\transforms-1\files-1.1\firebase-core-11.0.2.aar\0bc3f913a5b516fe9d1f7d93a1b19048\AndroidManifest.xml:5:5-20
MERGED from [com.google.firebase:firebase-core:11.0.2] C:\Users\PDighe\.gradle\caches\transforms-1\files-1.1\firebase-core-11.0.2.aar\0bc3f913a5b516fe9d1f7d93a1b19048\AndroidManifest.xml:5:5-20
MERGED from [com.android.support:animated-vector-drawable:26.0.0-alpha1] C:\Users\PDighe\.gradle\caches\transforms-1\files-1.1\animated-vector-drawable-26.0.0-alpha1.aar\0e8d70a75522698f261ce4a5599d7e58\AndroidManifest.xml:26:5-20
MERGED from [com.android.support:animated-vector-drawable:26.0.0-alpha1] C:\Users\PDighe\.gradle\caches\transforms-1\files-1.1\animated-vector-drawable-26.0.0-alpha1.aar\0e8d70a75522698f261ce4a5599d7e58\AndroidManifest.xml:26:5-20
MERGED from [com.android.support:support-vector-drawable:26.0.0-alpha1] C:\Users\PDighe\.gradle\caches\transforms-1\files-1.1\support-vector-drawable-26.0.0-alpha1.aar\e3aed4bd06cbfe304e9e6155f6f67d2f\AndroidManifest.xml:26:5-20
MERGED from [com.android.support:support-vector-drawable:26.0.0-alpha1] C:\Users\PDighe\.gradle\caches\transforms-1\files-1.1\support-vector-drawable-26.0.0-alpha1.aar\e3aed4bd06cbfe304e9e6155f6f67d2f\AndroidManifest.xml:26:5-20
MERGED from [com.android.support:transition:26.0.0-alpha1] C:\Users\PDighe\.gradle\caches\transforms-1\files-1.1\transition-26.0.0-alpha1.aar\dd198a0080d5c81cdd2f8bc6f5204257\AndroidManifest.xml:26:5-20
MERGED from [com.android.support:transition:26.0.0-alpha1] C:\Users\PDighe\.gradle\caches\transforms-1\files-1.1\transition-26.0.0-alpha1.aar\dd198a0080d5c81cdd2f8bc6f5204257\AndroidManifest.xml:26:5-20
MERGED from [com.google.android.gms:play-services-iid:11.0.2] C:\Users\PDighe\.gradle\caches\transforms-1\files-1.1\play-services-iid-11.0.2.aar\95d63ddc2181c858a4df341d222d07b4\AndroidManifest.xml:23:5-19
MERGED from [com.google.android.gms:play-services-iid:11.0.2] C:\Users\PDighe\.gradle\caches\transforms-1\files-1.1\play-services-iid-11.0.2.aar\95d63ddc2181c858a4df341d222d07b4\AndroidManifest.xml:23:5-19
MERGED from [com.google.android.gms:play-services-base:11.0.2] C:\Users\PDighe\.gradle\caches\transforms-1\files-1.1\play-services-base-11.0.2.aar\ede16186c76a5505b4547a5989540081\AndroidManifest.xml:18:5-20:19
MERGED from [com.google.android.gms:play-services-base:11.0.2] C:\Users\PDighe\.gradle\caches\transforms-1\files-1.1\play-services-base-11.0.2.aar\ede16186c76a5505b4547a5989540081\AndroidManifest.xml:18:5-20:19
MERGED from [com.google.firebase:firebase-analytics:11.0.2] C:\Users\PDighe\.gradle\caches\transforms-1\files-1.1\firebase-analytics-11.0.2.aar\74efeec40462abe45a578167cd69a802\AndroidManifest.xml:24:5-34:19
MERGED from [com.google.firebase:firebase-analytics:11.0.2] C:\Users\PDighe\.gradle\caches\transforms-1\files-1.1\firebase-analytics-11.0.2.aar\74efeec40462abe45a578167cd69a802\AndroidManifest.xml:24:5-34:19
MERGED from [com.google.firebase:firebase-analytics-impl:11.0.2] C:\Users\PDighe\.gradle\caches\transforms-1\files-1.1\firebase-analytics-impl-11.0.2.aar\c6bcf72c1b054d64d39d0537ee15dac3\AndroidManifest.xml:24:5-28:19
MERGED from [com.google.firebase:firebase-analytics-impl:11.0.2] C:\Users\PDighe\.gradle\caches\transforms-1\files-1.1\firebase-analytics-impl-11.0.2.aar\c6bcf72c1b054d64d39d0537ee15dac3\AndroidManifest.xml:24:5-28:19
MERGED from [com.google.firebase:firebase-iid:11.0.2] C:\Users\PDighe\.gradle\caches\transforms-1\files-1.1\firebase-iid-11.0.2.aar\17a9640590974cc17a8a895f34e0599b\AndroidManifest.xml:28:5-49:19
MERGED from [com.google.firebase:firebase-iid:11.0.2] C:\Users\PDighe\.gradle\caches\transforms-1\files-1.1\firebase-iid-11.0.2.aar\17a9640590974cc17a8a895f34e0599b\AndroidManifest.xml:28:5-49:19
MERGED from [com.google.firebase:firebase-common:11.0.2] C:\Users\PDighe\.gradle\caches\transforms-1\files-1.1\firebase-common-11.0.2.aar\95422b5cc8fe55cb1bf29e73fe87693c\AndroidManifest.xml:4:5-7:19
MERGED from [com.google.firebase:firebase-common:11.0.2] C:\Users\PDighe\.gradle\caches\transforms-1\files-1.1\firebase-common-11.0.2.aar\95422b5cc8fe55cb1bf29e73fe87693c\AndroidManifest.xml:4:5-7:19
MERGED from [com.google.android.gms:play-services-tasks:11.0.2] C:\Users\PDighe\.gradle\caches\transforms-1\files-1.1\play-services-tasks-11.0.2.aar\bbb4fd1d5c99b874b4a2faad004ebc82\AndroidManifest.xml:4:5-19
MERGED from [com.google.android.gms:play-services-tasks:11.0.2] C:\Users\PDighe\.gradle\caches\transforms-1\files-1.1\play-services-tasks-11.0.2.aar\bbb4fd1d5c99b874b4a2faad004ebc82\AndroidManifest.xml:4:5-19
MERGED from [com.google.android.gms:play-services-basement:11.0.2] C:\Users\PDighe\.gradle\caches\transforms-1\files-1.1\play-services-basement-11.0.2.aar\295935c265f5256c7bdec92ebfb86b54\AndroidManifest.xml:19:5-21:19
MERGED from [com.google.android.gms:play-services-basement:11.0.2] C:\Users\PDighe\.gradle\caches\transforms-1\files-1.1\play-services-basement-11.0.2.aar\295935c265f5256c7bdec92ebfb86b54\AndroidManifest.xml:19:5-21:19
MERGED from [com.android.support:support-v4:26.0.0-alpha1] C:\Users\PDighe\.gradle\caches\transforms-1\files-1.1\support-v4-26.0.0-alpha1.aar\16c60d6753e60cc9b3752727f521211b\AndroidManifest.xml:29:5-20
MERGED from [com.android.support:support-v4:26.0.0-alpha1] C:\Users\PDighe\.gradle\caches\transforms-1\files-1.1\support-v4-26.0.0-alpha1.aar\16c60d6753e60cc9b3752727f521211b\AndroidManifest.xml:29:5-20
MERGED from [com.android.support:support-fragment:26.0.0-alpha1] C:\Users\PDighe\.gradle\caches\transforms-1\files-1.1\support-fragment-26.0.0-alpha1.aar\9d694248a9b8c5b3b78c11299306d3b3\AndroidManifest.xml:29:5-20
MERGED from [com.android.support:support-fragment:26.0.0-alpha1] C:\Users\PDighe\.gradle\caches\transforms-1\files-1.1\support-fragment-26.0.0-alpha1.aar\9d694248a9b8c5b3b78c11299306d3b3\AndroidManifest.xml:29:5-20
MERGED from [com.android.support:support-core-ui:26.0.0-alpha1] C:\Users\PDighe\.gradle\caches\transforms-1\files-1.1\support-core-ui-26.0.0-alpha1.aar\1dd68dda8f29c663f8fb3d58e48ae690\AndroidManifest.xml:29:5-20
MERGED from [com.android.support:support-core-ui:26.0.0-alpha1] C:\Users\PDighe\.gradle\caches\transforms-1\files-1.1\support-core-ui-26.0.0-alpha1.aar\1dd68dda8f29c663f8fb3d58e48ae690\AndroidManifest.xml:29:5-20
MERGED from [com.android.support:support-media-compat:26.0.0-alpha1] C:\Users\PDighe\.gradle\caches\transforms-1\files-1.1\support-media-compat-26.0.0-alpha1.aar\0724c74f167535abffc0c1c474165af3\AndroidManifest.xml:29:5-20
MERGED from [com.android.support:support-media-compat:26.0.0-alpha1] C:\Users\PDighe\.gradle\caches\transforms-1\files-1.1\support-media-compat-26.0.0-alpha1.aar\0724c74f167535abffc0c1c474165af3\AndroidManifest.xml:29:5-20
MERGED from [com.android.support:support-core-utils:26.0.0-alpha1] C:\Users\PDighe\.gradle\caches\transforms-1\files-1.1\support-core-utils-26.0.0-alpha1.aar\5a3e307d10b3c898a438d7f178dcbc65\AndroidManifest.xml:29:5-20
MERGED from [com.android.support:support-core-utils:26.0.0-alpha1] C:\Users\PDighe\.gradle\caches\transforms-1\files-1.1\support-core-utils-26.0.0-alpha1.aar\5a3e307d10b3c898a438d7f178dcbc65\AndroidManifest.xml:29:5-20
MERGED from [com.android.support:support-compat:26.0.0-alpha1] C:\Users\PDighe\.gradle\caches\transforms-1\files-1.1\support-compat-26.0.0-alpha1.aar\4a6b2bdde9763fd926e1277bab4f0aa1\AndroidManifest.xml:29:5-20
MERGED from [com.android.support:support-compat:26.0.0-alpha1] C:\Users\PDighe\.gradle\caches\transforms-1\files-1.1\support-compat-26.0.0-alpha1.aar\4a6b2bdde9763fd926e1277bab4f0aa1\AndroidManifest.xml:29:5-20
	android:supportsRtl
		ADDED from F:\OfficeWorkspace\MedApp\transporttrackerexample\src\main\AndroidManifest.xml:17:9-35
	android:label
		ADDED from F:\OfficeWorkspace\MedApp\transporttrackerexample\src\main\AndroidManifest.xml:16:9-41
	android:icon
		ADDED from F:\OfficeWorkspace\MedApp\transporttrackerexample\src\main\AndroidManifest.xml:15:9-43
	android:allowBackup
		ADDED from F:\OfficeWorkspace\MedApp\transporttrackerexample\src\main\AndroidManifest.xml:14:9-35
	android:theme
		ADDED from F:\OfficeWorkspace\MedApp\transporttrackerexample\src\main\AndroidManifest.xml:18:9-40
service#com.google.transporttracker.TrackerService
ADDED from F:\OfficeWorkspace\MedApp\transporttrackerexample\src\main\AndroidManifest.xml:20:9-24:19
	android:enabled
		ADDED from F:\OfficeWorkspace\MedApp\transporttrackerexample\src\main\AndroidManifest.xml:22:13-35
	android:exported
		ADDED from F:\OfficeWorkspace\MedApp\transporttrackerexample\src\main\AndroidManifest.xml:23:13-36
	android:name
		ADDED from F:\OfficeWorkspace\MedApp\transporttrackerexample\src\main\AndroidManifest.xml:21:13-70
activity#com.google.transporttracker.TrackerActivity
ADDED from F:\OfficeWorkspace\MedApp\transporttrackerexample\src\main\AndroidManifest.xml:26:9-34:20
	android:screenOrientation
		ADDED from F:\OfficeWorkspace\MedApp\transporttrackerexample\src\main\AndroidManifest.xml:29:13-55
	android:label
		ADDED from F:\OfficeWorkspace\MedApp\transporttrackerexample\src\main\AndroidManifest.xml:28:13-56
	android:name
		ADDED from F:\OfficeWorkspace\MedApp\transporttrackerexample\src\main\AndroidManifest.xml:27:13-71
intent-filter#android.intent.action.MAIN+android.intent.category.LAUNCHER
ADDED from F:\OfficeWorkspace\MedApp\transporttrackerexample\src\main\AndroidManifest.xml:30:13-33:29
action#android.intent.action.MAIN
ADDED from F:\OfficeWorkspace\MedApp\transporttrackerexample\src\main\AndroidManifest.xml:31:17-68
	android:name
		ADDED from F:\OfficeWorkspace\MedApp\transporttrackerexample\src\main\AndroidManifest.xml:31:25-66
category#android.intent.category.LAUNCHER
ADDED from F:\OfficeWorkspace\MedApp\transporttrackerexample\src\main\AndroidManifest.xml:32:17-76
	android:name
		ADDED from F:\OfficeWorkspace\MedApp\transporttrackerexample\src\main\AndroidManifest.xml:32:27-74
receiver#com.google.transporttracker.TrackerBroadcastReceiver
ADDED from F:\OfficeWorkspace\MedApp\transporttrackerexample\src\main\AndroidManifest.xml:36:9-49:20
	android:enabled
		ADDED from F:\OfficeWorkspace\MedApp\transporttrackerexample\src\main\AndroidManifest.xml:38:13-35
	android:exported
		ADDED from F:\OfficeWorkspace\MedApp\transporttrackerexample\src\main\AndroidManifest.xml:39:13-36
	android:name
		ADDED from F:\OfficeWorkspace\MedApp\transporttrackerexample\src\main\AndroidManifest.xml:37:13-80
intent-filter#android.intent.action.BOOT_COMPLETED
ADDED from F:\OfficeWorkspace\MedApp\transporttrackerexample\src\main\AndroidManifest.xml:40:13-42:29
action#android.intent.action.BOOT_COMPLETED
ADDED from F:\OfficeWorkspace\MedApp\transporttrackerexample\src\main\AndroidManifest.xml:41:17-78
	android:name
		ADDED from F:\OfficeWorkspace\MedApp\transporttrackerexample\src\main\AndroidManifest.xml:41:25-76
intent-filter#.TrackerActivity.ALARM_ACTION_START
ADDED from F:\OfficeWorkspace\MedApp\transporttrackerexample\src\main\AndroidManifest.xml:43:13-45:29
action#com.google.transporttracker.TrackerActivity.ALARM_ACTION_START
ADDED from F:\OfficeWorkspace\MedApp\transporttrackerexample\src\main\AndroidManifest.xml:44:17-77
	android:name
		ADDED from F:\OfficeWorkspace\MedApp\transporttrackerexample\src\main\AndroidManifest.xml:44:25-75
intent-filter#.TrackerActivity.ALARM_ACTION_END
ADDED from F:\OfficeWorkspace\MedApp\transporttrackerexample\src\main\AndroidManifest.xml:46:13-48:29
action#com.google.transporttracker.TrackerActivity.ALARM_ACTION_END
ADDED from F:\OfficeWorkspace\MedApp\transporttrackerexample\src\main\AndroidManifest.xml:47:17-75
	android:name
		ADDED from F:\OfficeWorkspace\MedApp\transporttrackerexample\src\main\AndroidManifest.xml:47:25-73
service#com.google.transporttracker.TrackerTaskService
ADDED from F:\OfficeWorkspace\MedApp\transporttrackerexample\src\main\AndroidManifest.xml:51:9-57:19
	android:exported
		ADDED from F:\OfficeWorkspace\MedApp\transporttrackerexample\src\main\AndroidManifest.xml:53:18-41
	android:permission
		ADDED from F:\OfficeWorkspace\MedApp\transporttrackerexample\src\main\AndroidManifest.xml:52:18-98
	android:name
		ADDED from F:\OfficeWorkspace\MedApp\transporttrackerexample\src\main\AndroidManifest.xml:51:18-79
intent-filter#com.google.android.gms.gcm.ACTION_TASK_READY
ADDED from F:\OfficeWorkspace\MedApp\transporttrackerexample\src\main\AndroidManifest.xml:54:13-56:29
action#com.google.android.gms.gcm.ACTION_TASK_READY
ADDED from F:\OfficeWorkspace\MedApp\transporttrackerexample\src\main\AndroidManifest.xml:55:17-86
	android:name
		ADDED from F:\OfficeWorkspace\MedApp\transporttrackerexample\src\main\AndroidManifest.xml:55:25-84
uses-sdk
INJECTED from F:\OfficeWorkspace\MedApp\transporttrackerexample\src\main\AndroidManifest.xml reason: use-sdk injection requested
INJECTED from F:\OfficeWorkspace\MedApp\transporttrackerexample\src\main\AndroidManifest.xml
INJECTED from F:\OfficeWorkspace\MedApp\transporttrackerexample\src\main\AndroidManifest.xml
MERGED from [com.android.support:design:26.0.0-alpha1] C:\Users\PDighe\.gradle\caches\transforms-1\files-1.1\design-26.0.0-alpha1.aar\ce803f48da20d859326dc5a5497245da\AndroidManifest.xml:21:5-23:62
MERGED from [com.android.support:design:26.0.0-alpha1] C:\Users\PDighe\.gradle\caches\transforms-1\files-1.1\design-26.0.0-alpha1.aar\ce803f48da20d859326dc5a5497245da\AndroidManifest.xml:21:5-23:62
MERGED from [com.android.support:appcompat-v7:26.0.0-alpha1] C:\Users\PDighe\.gradle\caches\transforms-1\files-1.1\appcompat-v7-26.0.0-alpha1.aar\a30cdff0a1ac42dea028b934a7b40148\AndroidManifest.xml:21:5-23:78
MERGED from [com.android.support:appcompat-v7:26.0.0-alpha1] C:\Users\PDighe\.gradle\caches\transforms-1\files-1.1\appcompat-v7-26.0.0-alpha1.aar\a30cdff0a1ac42dea028b934a7b40148\AndroidManifest.xml:21:5-23:78
MERGED from [com.android.support:cardview-v7:26.0.0-alpha1] C:\Users\PDighe\.gradle\caches\transforms-1\files-1.1\cardview-v7-26.0.0-alpha1.aar\430f6152cdddc270f42e7a849e1175c2\AndroidManifest.xml:20:5-44
MERGED from [com.android.support:cardview-v7:26.0.0-alpha1] C:\Users\PDighe\.gradle\caches\transforms-1\files-1.1\cardview-v7-26.0.0-alpha1.aar\430f6152cdddc270f42e7a849e1175c2\AndroidManifest.xml:20:5-44
MERGED from [com.google.android.gms:play-services-gcm:11.0.2] C:\Users\PDighe\.gradle\caches\transforms-1\files-1.1\play-services-gcm-11.0.2.aar\8f2c00b9a293cc88ae9d95a52e5523ba\AndroidManifest.xml:17:5-43
MERGED from [com.google.android.gms:play-services-gcm:11.0.2] C:\Users\PDighe\.gradle\caches\transforms-1\files-1.1\play-services-gcm-11.0.2.aar\8f2c00b9a293cc88ae9d95a52e5523ba\AndroidManifest.xml:17:5-43
MERGED from [com.google.android.gms:play-services-location:11.0.2] C:\Users\PDighe\.gradle\caches\transforms-1\files-1.1\play-services-location-11.0.2.aar\ffd8364c314df765051b6a62052ed020\AndroidManifest.xml:3:5-43
MERGED from [com.google.android.gms:play-services-location:11.0.2] C:\Users\PDighe\.gradle\caches\transforms-1\files-1.1\play-services-location-11.0.2.aar\ffd8364c314df765051b6a62052ed020\AndroidManifest.xml:3:5-43
MERGED from [com.google.firebase:firebase-auth:11.0.2] C:\Users\PDighe\.gradle\caches\transforms-1\files-1.1\firebase-auth-11.0.2.aar\acec04f03363d799815ac25aeb090469\AndroidManifest.xml:17:5-43
MERGED from [com.google.firebase:firebase-auth:11.0.2] C:\Users\PDighe\.gradle\caches\transforms-1\files-1.1\firebase-auth-11.0.2.aar\acec04f03363d799815ac25aeb090469\AndroidManifest.xml:17:5-43
MERGED from [com.google.firebase:firebase-config:11.0.2] C:\Users\PDighe\.gradle\caches\transforms-1\files-1.1\firebase-config-11.0.2.aar\82de3e9e6e690e18f2daf2d5ba0d617d\AndroidManifest.xml:17:5-43
MERGED from [com.google.firebase:firebase-config:11.0.2] C:\Users\PDighe\.gradle\caches\transforms-1\files-1.1\firebase-config-11.0.2.aar\82de3e9e6e690e18f2daf2d5ba0d617d\AndroidManifest.xml:17:5-43
MERGED from [com.google.firebase:firebase-crash:11.0.2] C:\Users\PDighe\.gradle\caches\transforms-1\files-1.1\firebase-crash-11.0.2.aar\edf63b3cb24433b9e8569ba31cf9469a\AndroidManifest.xml:20:5-43
MERGED from [com.google.firebase:firebase-crash:11.0.2] C:\Users\PDighe\.gradle\caches\transforms-1\files-1.1\firebase-crash-11.0.2.aar\edf63b3cb24433b9e8569ba31cf9469a\AndroidManifest.xml:20:5-43
MERGED from [com.google.firebase:firebase-database:11.0.2] C:\Users\PDighe\.gradle\caches\transforms-1\files-1.1\firebase-database-11.0.2.aar\3580249bdd37c5288d2408a2ca756a7b\AndroidManifest.xml:3:5-43
MERGED from [com.google.firebase:firebase-database:11.0.2] C:\Users\PDighe\.gradle\caches\transforms-1\files-1.1\firebase-database-11.0.2.aar\3580249bdd37c5288d2408a2ca756a7b\AndroidManifest.xml:3:5-43
MERGED from [com.google.firebase:firebase-core:11.0.2] C:\Users\PDighe\.gradle\caches\transforms-1\files-1.1\firebase-core-11.0.2.aar\0bc3f913a5b516fe9d1f7d93a1b19048\AndroidManifest.xml:4:5-43
MERGED from [com.google.firebase:firebase-core:11.0.2] C:\Users\PDighe\.gradle\caches\transforms-1\files-1.1\firebase-core-11.0.2.aar\0bc3f913a5b516fe9d1f7d93a1b19048\AndroidManifest.xml:4:5-43
MERGED from [com.android.support:animated-vector-drawable:26.0.0-alpha1] C:\Users\PDighe\.gradle\caches\transforms-1\files-1.1\animated-vector-drawable-26.0.0-alpha1.aar\0e8d70a75522698f261ce4a5599d7e58\AndroidManifest.xml:20:5-44
MERGED from [com.android.support:animated-vector-drawable:26.0.0-alpha1] C:\Users\PDighe\.gradle\caches\transforms-1\files-1.1\animated-vector-drawable-26.0.0-alpha1.aar\0e8d70a75522698f261ce4a5599d7e58\AndroidManifest.xml:20:5-44
MERGED from [com.android.support:support-vector-drawable:26.0.0-alpha1] C:\Users\PDighe\.gradle\caches\transforms-1\files-1.1\support-vector-drawable-26.0.0-alpha1.aar\e3aed4bd06cbfe304e9e6155f6f67d2f\AndroidManifest.xml:20:5-44
MERGED from [com.android.support:support-vector-drawable:26.0.0-alpha1] C:\Users\PDighe\.gradle\caches\transforms-1\files-1.1\support-vector-drawable-26.0.0-alpha1.aar\e3aed4bd06cbfe304e9e6155f6f67d2f\AndroidManifest.xml:20:5-44
MERGED from [com.android.support:recyclerview-v7:26.0.0-alpha1] C:\Users\PDighe\.gradle\caches\transforms-1\files-1.1\recyclerview-v7-26.0.0-alpha1.aar\b132bfc5efe054d1348934ff45753e56\AndroidManifest.xml:20:5-44
MERGED from [com.android.support:recyclerview-v7:26.0.0-alpha1] C:\Users\PDighe\.gradle\caches\transforms-1\files-1.1\recyclerview-v7-26.0.0-alpha1.aar\b132bfc5efe054d1348934ff45753e56\AndroidManifest.xml:20:5-44
MERGED from [com.android.support:transition:26.0.0-alpha1] C:\Users\PDighe\.gradle\caches\transforms-1\files-1.1\transition-26.0.0-alpha1.aar\dd198a0080d5c81cdd2f8bc6f5204257\AndroidManifest.xml:20:5-44
MERGED from [com.android.support:transition:26.0.0-alpha1] C:\Users\PDighe\.gradle\caches\transforms-1\files-1.1\transition-26.0.0-alpha1.aar\dd198a0080d5c81cdd2f8bc6f5204257\AndroidManifest.xml:20:5-44
MERGED from [com.google.android.gms:play-services-iid:11.0.2] C:\Users\PDighe\.gradle\caches\transforms-1\files-1.1\play-services-iid-11.0.2.aar\95d63ddc2181c858a4df341d222d07b4\AndroidManifest.xml:17:5-43
MERGED from [com.google.android.gms:play-services-iid:11.0.2] C:\Users\PDighe\.gradle\caches\transforms-1\files-1.1\play-services-iid-11.0.2.aar\95d63ddc2181c858a4df341d222d07b4\AndroidManifest.xml:17:5-43
MERGED from [com.google.android.gms:play-services-base:11.0.2] C:\Users\PDighe\.gradle\caches\transforms-1\files-1.1\play-services-base-11.0.2.aar\ede16186c76a5505b4547a5989540081\AndroidManifest.xml:17:5-43
MERGED from [com.google.android.gms:play-services-base:11.0.2] C:\Users\PDighe\.gradle\caches\transforms-1\files-1.1\play-services-base-11.0.2.aar\ede16186c76a5505b4547a5989540081\AndroidManifest.xml:17:5-43
MERGED from [com.google.firebase:firebase-analytics:11.0.2] C:\Users\PDighe\.gradle\caches\transforms-1\files-1.1\firebase-analytics-11.0.2.aar\74efeec40462abe45a578167cd69a802\AndroidManifest.xml:17:5-43
MERGED from [com.google.firebase:firebase-analytics:11.0.2] C:\Users\PDighe\.gradle\caches\transforms-1\files-1.1\firebase-analytics-11.0.2.aar\74efeec40462abe45a578167cd69a802\AndroidManifest.xml:17:5-43
MERGED from [com.google.firebase:firebase-analytics-impl:11.0.2] C:\Users\PDighe\.gradle\caches\transforms-1\files-1.1\firebase-analytics-impl-11.0.2.aar\c6bcf72c1b054d64d39d0537ee15dac3\AndroidManifest.xml:17:5-43
MERGED from [com.google.firebase:firebase-analytics-impl:11.0.2] C:\Users\PDighe\.gradle\caches\transforms-1\files-1.1\firebase-analytics-impl-11.0.2.aar\c6bcf72c1b054d64d39d0537ee15dac3\AndroidManifest.xml:17:5-43
MERGED from [com.google.firebase:firebase-iid:11.0.2] C:\Users\PDighe\.gradle\caches\transforms-1\files-1.1\firebase-iid-11.0.2.aar\17a9640590974cc17a8a895f34e0599b\AndroidManifest.xml:17:5-43
MERGED from [com.google.firebase:firebase-iid:11.0.2] C:\Users\PDighe\.gradle\caches\transforms-1\files-1.1\firebase-iid-11.0.2.aar\17a9640590974cc17a8a895f34e0599b\AndroidManifest.xml:17:5-43
MERGED from [com.google.firebase:firebase-database-connection:11.0.2] C:\Users\PDighe\.gradle\caches\transforms-1\files-1.1\firebase-database-connection-11.0.2.aar\69da46cb41da3fc483014a370c789514\AndroidManifest.xml:3:5-43
MERGED from [com.google.firebase:firebase-database-connection:11.0.2] C:\Users\PDighe\.gradle\caches\transforms-1\files-1.1\firebase-database-connection-11.0.2.aar\69da46cb41da3fc483014a370c789514\AndroidManifest.xml:3:5-43
MERGED from [com.google.firebase:firebase-common:11.0.2] C:\Users\PDighe\.gradle\caches\transforms-1\files-1.1\firebase-common-11.0.2.aar\95422b5cc8fe55cb1bf29e73fe87693c\AndroidManifest.xml:3:5-43
MERGED from [com.google.firebase:firebase-common:11.0.2] C:\Users\PDighe\.gradle\caches\transforms-1\files-1.1\firebase-common-11.0.2.aar\95422b5cc8fe55cb1bf29e73fe87693c\AndroidManifest.xml:3:5-43
MERGED from [com.google.android.gms:play-services-tasks:11.0.2] C:\Users\PDighe\.gradle\caches\transforms-1\files-1.1\play-services-tasks-11.0.2.aar\bbb4fd1d5c99b874b4a2faad004ebc82\AndroidManifest.xml:3:5-43
MERGED from [com.google.android.gms:play-services-tasks:11.0.2] C:\Users\PDighe\.gradle\caches\transforms-1\files-1.1\play-services-tasks-11.0.2.aar\bbb4fd1d5c99b874b4a2faad004ebc82\AndroidManifest.xml:3:5-43
MERGED from [com.google.android.gms:play-services-basement:11.0.2] C:\Users\PDighe\.gradle\caches\transforms-1\files-1.1\play-services-basement-11.0.2.aar\295935c265f5256c7bdec92ebfb86b54\AndroidManifest.xml:17:5-43
MERGED from [com.google.android.gms:play-services-basement:11.0.2] C:\Users\PDighe\.gradle\caches\transforms-1\files-1.1\play-services-basement-11.0.2.aar\295935c265f5256c7bdec92ebfb86b54\AndroidManifest.xml:17:5-43
MERGED from [com.android.support:support-v4:26.0.0-alpha1] C:\Users\PDighe\.gradle\caches\transforms-1\files-1.1\support-v4-26.0.0-alpha1.aar\16c60d6753e60cc9b3752727f521211b\AndroidManifest.xml:21:5-23:54
MERGED from [com.android.support:support-v4:26.0.0-alpha1] C:\Users\PDighe\.gradle\caches\transforms-1\files-1.1\support-v4-26.0.0-alpha1.aar\16c60d6753e60cc9b3752727f521211b\AndroidManifest.xml:21:5-23:54
MERGED from [com.android.support:support-fragment:26.0.0-alpha1] C:\Users\PDighe\.gradle\caches\transforms-1\files-1.1\support-fragment-26.0.0-alpha1.aar\9d694248a9b8c5b3b78c11299306d3b3\AndroidManifest.xml:21:5-23:60
MERGED from [com.android.support:support-fragment:26.0.0-alpha1] C:\Users\PDighe\.gradle\caches\transforms-1\files-1.1\support-fragment-26.0.0-alpha1.aar\9d694248a9b8c5b3b78c11299306d3b3\AndroidManifest.xml:21:5-23:60
MERGED from [com.android.support:support-core-ui:26.0.0-alpha1] C:\Users\PDighe\.gradle\caches\transforms-1\files-1.1\support-core-ui-26.0.0-alpha1.aar\1dd68dda8f29c663f8fb3d58e48ae690\AndroidManifest.xml:21:5-23:58
MERGED from [com.android.support:support-core-ui:26.0.0-alpha1] C:\Users\PDighe\.gradle\caches\transforms-1\files-1.1\support-core-ui-26.0.0-alpha1.aar\1dd68dda8f29c663f8fb3d58e48ae690\AndroidManifest.xml:21:5-23:58
MERGED from [com.android.support:support-media-compat:26.0.0-alpha1] C:\Users\PDighe\.gradle\caches\transforms-1\files-1.1\support-media-compat-26.0.0-alpha1.aar\0724c74f167535abffc0c1c474165af3\AndroidManifest.xml:21:5-23:63
MERGED from [com.android.support:support-media-compat:26.0.0-alpha1] C:\Users\PDighe\.gradle\caches\transforms-1\files-1.1\support-media-compat-26.0.0-alpha1.aar\0724c74f167535abffc0c1c474165af3\AndroidManifest.xml:21:5-23:63
MERGED from [com.android.support:support-core-utils:26.0.0-alpha1] C:\Users\PDighe\.gradle\caches\transforms-1\files-1.1\support-core-utils-26.0.0-alpha1.aar\5a3e307d10b3c898a438d7f178dcbc65\AndroidManifest.xml:21:5-23:61
MERGED from [com.android.support:support-core-utils:26.0.0-alpha1] C:\Users\PDighe\.gradle\caches\transforms-1\files-1.1\support-core-utils-26.0.0-alpha1.aar\5a3e307d10b3c898a438d7f178dcbc65\AndroidManifest.xml:21:5-23:61
MERGED from [com.android.support:support-compat:26.0.0-alpha1] C:\Users\PDighe\.gradle\caches\transforms-1\files-1.1\support-compat-26.0.0-alpha1.aar\4a6b2bdde9763fd926e1277bab4f0aa1\AndroidManifest.xml:21:5-23:58
MERGED from [com.android.support:support-compat:26.0.0-alpha1] C:\Users\PDighe\.gradle\caches\transforms-1\files-1.1\support-compat-26.0.0-alpha1.aar\4a6b2bdde9763fd926e1277bab4f0aa1\AndroidManifest.xml:21:5-23:58
INJECTED from F:\OfficeWorkspace\MedApp\transporttrackerexample\src\main\AndroidManifest.xml
INJECTED from F:\OfficeWorkspace\MedApp\transporttrackerexample\src\main\AndroidManifest.xml
	tools:overrideLibrary
		ADDED from [com.android.support:design:26.0.0-alpha1] C:\Users\PDighe\.gradle\caches\transforms-1\files-1.1\design-26.0.0-alpha1.aar\ce803f48da20d859326dc5a5497245da\AndroidManifest.xml:23:9-59
	android:targetSdkVersion
		INJECTED from F:\OfficeWorkspace\MedApp\transporttrackerexample\src\main\AndroidManifest.xml
		ADDED from F:\OfficeWorkspace\MedApp\transporttrackerexample\src\main\AndroidManifest.xml
		INJECTED from F:\OfficeWorkspace\MedApp\transporttrackerexample\src\main\AndroidManifest.xml
	android:minSdkVersion
		INJECTED from F:\OfficeWorkspace\MedApp\transporttrackerexample\src\main\AndroidManifest.xml
		ADDED from F:\OfficeWorkspace\MedApp\transporttrackerexample\src\main\AndroidManifest.xml
		INJECTED from F:\OfficeWorkspace\MedApp\transporttrackerexample\src\main\AndroidManifest.xml
meta-data#android.support.VERSION
ADDED from [com.android.support:design:26.0.0-alpha1] C:\Users\PDighe\.gradle\caches\transforms-1\files-1.1\design-26.0.0-alpha1.aar\ce803f48da20d859326dc5a5497245da\AndroidManifest.xml:25:5-27:41
MERGED from [com.android.support:appcompat-v7:26.0.0-alpha1] C:\Users\PDighe\.gradle\caches\transforms-1\files-1.1\appcompat-v7-26.0.0-alpha1.aar\a30cdff0a1ac42dea028b934a7b40148\AndroidManifest.xml:25:5-27:41
MERGED from [com.android.support:appcompat-v7:26.0.0-alpha1] C:\Users\PDighe\.gradle\caches\transforms-1\files-1.1\appcompat-v7-26.0.0-alpha1.aar\a30cdff0a1ac42dea028b934a7b40148\AndroidManifest.xml:25:5-27:41
MERGED from [com.android.support:cardview-v7:26.0.0-alpha1] C:\Users\PDighe\.gradle\caches\transforms-1\files-1.1\cardview-v7-26.0.0-alpha1.aar\430f6152cdddc270f42e7a849e1175c2\AndroidManifest.xml:22:5-24:41
MERGED from [com.android.support:cardview-v7:26.0.0-alpha1] C:\Users\PDighe\.gradle\caches\transforms-1\files-1.1\cardview-v7-26.0.0-alpha1.aar\430f6152cdddc270f42e7a849e1175c2\AndroidManifest.xml:22:5-24:41
MERGED from [com.android.support:animated-vector-drawable:26.0.0-alpha1] C:\Users\PDighe\.gradle\caches\transforms-1\files-1.1\animated-vector-drawable-26.0.0-alpha1.aar\0e8d70a75522698f261ce4a5599d7e58\AndroidManifest.xml:22:5-24:41
MERGED from [com.android.support:animated-vector-drawable:26.0.0-alpha1] C:\Users\PDighe\.gradle\caches\transforms-1\files-1.1\animated-vector-drawable-26.0.0-alpha1.aar\0e8d70a75522698f261ce4a5599d7e58\AndroidManifest.xml:22:5-24:41
MERGED from [com.android.support:support-vector-drawable:26.0.0-alpha1] C:\Users\PDighe\.gradle\caches\transforms-1\files-1.1\support-vector-drawable-26.0.0-alpha1.aar\e3aed4bd06cbfe304e9e6155f6f67d2f\AndroidManifest.xml:22:5-24:41
MERGED from [com.android.support:support-vector-drawable:26.0.0-alpha1] C:\Users\PDighe\.gradle\caches\transforms-1\files-1.1\support-vector-drawable-26.0.0-alpha1.aar\e3aed4bd06cbfe304e9e6155f6f67d2f\AndroidManifest.xml:22:5-24:41
MERGED from [com.android.support:recyclerview-v7:26.0.0-alpha1] C:\Users\PDighe\.gradle\caches\transforms-1\files-1.1\recyclerview-v7-26.0.0-alpha1.aar\b132bfc5efe054d1348934ff45753e56\AndroidManifest.xml:22:5-24:41
MERGED from [com.android.support:recyclerview-v7:26.0.0-alpha1] C:\Users\PDighe\.gradle\caches\transforms-1\files-1.1\recyclerview-v7-26.0.0-alpha1.aar\b132bfc5efe054d1348934ff45753e56\AndroidManifest.xml:22:5-24:41
MERGED from [com.android.support:transition:26.0.0-alpha1] C:\Users\PDighe\.gradle\caches\transforms-1\files-1.1\transition-26.0.0-alpha1.aar\dd198a0080d5c81cdd2f8bc6f5204257\AndroidManifest.xml:22:5-24:41
MERGED from [com.android.support:transition:26.0.0-alpha1] C:\Users\PDighe\.gradle\caches\transforms-1\files-1.1\transition-26.0.0-alpha1.aar\dd198a0080d5c81cdd2f8bc6f5204257\AndroidManifest.xml:22:5-24:41
MERGED from [com.android.support:support-v4:26.0.0-alpha1] C:\Users\PDighe\.gradle\caches\transforms-1\files-1.1\support-v4-26.0.0-alpha1.aar\16c60d6753e60cc9b3752727f521211b\AndroidManifest.xml:25:5-27:41
MERGED from [com.android.support:support-v4:26.0.0-alpha1] C:\Users\PDighe\.gradle\caches\transforms-1\files-1.1\support-v4-26.0.0-alpha1.aar\16c60d6753e60cc9b3752727f521211b\AndroidManifest.xml:25:5-27:41
MERGED from [com.android.support:support-fragment:26.0.0-alpha1] C:\Users\PDighe\.gradle\caches\transforms-1\files-1.1\support-fragment-26.0.0-alpha1.aar\9d694248a9b8c5b3b78c11299306d3b3\AndroidManifest.xml:25:5-27:41
MERGED from [com.android.support:support-fragment:26.0.0-alpha1] C:\Users\PDighe\.gradle\caches\transforms-1\files-1.1\support-fragment-26.0.0-alpha1.aar\9d694248a9b8c5b3b78c11299306d3b3\AndroidManifest.xml:25:5-27:41
MERGED from [com.android.support:support-core-ui:26.0.0-alpha1] C:\Users\PDighe\.gradle\caches\transforms-1\files-1.1\support-core-ui-26.0.0-alpha1.aar\1dd68dda8f29c663f8fb3d58e48ae690\AndroidManifest.xml:25:5-27:41
MERGED from [com.android.support:support-core-ui:26.0.0-alpha1] C:\Users\PDighe\.gradle\caches\transforms-1\files-1.1\support-core-ui-26.0.0-alpha1.aar\1dd68dda8f29c663f8fb3d58e48ae690\AndroidManifest.xml:25:5-27:41
MERGED from [com.android.support:support-media-compat:26.0.0-alpha1] C:\Users\PDighe\.gradle\caches\transforms-1\files-1.1\support-media-compat-26.0.0-alpha1.aar\0724c74f167535abffc0c1c474165af3\AndroidManifest.xml:25:5-27:41
MERGED from [com.android.support:support-media-compat:26.0.0-alpha1] C:\Users\PDighe\.gradle\caches\transforms-1\files-1.1\support-media-compat-26.0.0-alpha1.aar\0724c74f167535abffc0c1c474165af3\AndroidManifest.xml:25:5-27:41
MERGED from [com.android.support:support-core-utils:26.0.0-alpha1] C:\Users\PDighe\.gradle\caches\transforms-1\files-1.1\support-core-utils-26.0.0-alpha1.aar\5a3e307d10b3c898a438d7f178dcbc65\AndroidManifest.xml:25:5-27:41
MERGED from [com.android.support:support-core-utils:26.0.0-alpha1] C:\Users\PDighe\.gradle\caches\transforms-1\files-1.1\support-core-utils-26.0.0-alpha1.aar\5a3e307d10b3c898a438d7f178dcbc65\AndroidManifest.xml:25:5-27:41
MERGED from [com.android.support:support-compat:26.0.0-alpha1] C:\Users\PDighe\.gradle\caches\transforms-1\files-1.1\support-compat-26.0.0-alpha1.aar\4a6b2bdde9763fd926e1277bab4f0aa1\AndroidManifest.xml:25:5-27:41
MERGED from [com.android.support:support-compat:26.0.0-alpha1] C:\Users\PDighe\.gradle\caches\transforms-1\files-1.1\support-compat-26.0.0-alpha1.aar\4a6b2bdde9763fd926e1277bab4f0aa1\AndroidManifest.xml:25:5-27:41
	android:value
		ADDED from [com.android.support:design:26.0.0-alpha1] C:\Users\PDighe\.gradle\caches\transforms-1\files-1.1\design-26.0.0-alpha1.aar\ce803f48da20d859326dc5a5497245da\AndroidManifest.xml:27:9-38
	android:name
		ADDED from [com.android.support:design:26.0.0-alpha1] C:\Users\PDighe\.gradle\caches\transforms-1\files-1.1\design-26.0.0-alpha1.aar\ce803f48da20d859326dc5a5497245da\AndroidManifest.xml:26:9-47
uses-permission#com.google.android.c2dm.permission.RECEIVE
ADDED from [com.google.android.gms:play-services-gcm:11.0.2] C:\Users\PDighe\.gradle\caches\transforms-1\files-1.1\play-services-gcm-11.0.2.aar\8f2c00b9a293cc88ae9d95a52e5523ba\AndroidManifest.xml:20:5-81
MERGED from [com.google.android.gms:play-services-iid:11.0.2] C:\Users\PDighe\.gradle\caches\transforms-1\files-1.1\play-services-iid-11.0.2.aar\95d63ddc2181c858a4df341d222d07b4\AndroidManifest.xml:20:5-81
MERGED from [com.google.android.gms:play-services-iid:11.0.2] C:\Users\PDighe\.gradle\caches\transforms-1\files-1.1\play-services-iid-11.0.2.aar\95d63ddc2181c858a4df341d222d07b4\AndroidManifest.xml:20:5-81
MERGED from [com.google.firebase:firebase-iid:11.0.2] C:\Users\PDighe\.gradle\caches\transforms-1\files-1.1\firebase-iid-11.0.2.aar\17a9640590974cc17a8a895f34e0599b\AndroidManifest.xml:22:5-81
MERGED from [com.google.firebase:firebase-iid:11.0.2] C:\Users\PDighe\.gradle\caches\transforms-1\files-1.1\firebase-iid-11.0.2.aar\17a9640590974cc17a8a895f34e0599b\AndroidManifest.xml:22:5-81
	android:name
		ADDED from [com.google.android.gms:play-services-gcm:11.0.2] C:\Users\PDighe\.gradle\caches\transforms-1\files-1.1\play-services-gcm-11.0.2.aar\8f2c00b9a293cc88ae9d95a52e5523ba\AndroidManifest.xml:20:22-79
activity#com.google.android.gms.common.api.GoogleApiActivity
ADDED from [com.google.android.gms:play-services-base:11.0.2] C:\Users\PDighe\.gradle\caches\transforms-1\files-1.1\play-services-base-11.0.2.aar\ede16186c76a5505b4547a5989540081\AndroidManifest.xml:19:9-172
	android:exported
		ADDED from [com.google.android.gms:play-services-base:11.0.2] C:\Users\PDighe\.gradle\caches\transforms-1\files-1.1\play-services-base-11.0.2.aar\ede16186c76a5505b4547a5989540081\AndroidManifest.xml:19:146-170
	android:theme
		ADDED from [com.google.android.gms:play-services-base:11.0.2] C:\Users\PDighe\.gradle\caches\transforms-1\files-1.1\play-services-base-11.0.2.aar\ede16186c76a5505b4547a5989540081\AndroidManifest.xml:19:86-145
	android:name
		ADDED from [com.google.android.gms:play-services-base:11.0.2] C:\Users\PDighe\.gradle\caches\transforms-1\files-1.1\play-services-base-11.0.2.aar\ede16186c76a5505b4547a5989540081\AndroidManifest.xml:19:19-85
receiver#com.google.android.gms.measurement.AppMeasurementReceiver
ADDED from [com.google.firebase:firebase-analytics:11.0.2] C:\Users\PDighe\.gradle\caches\transforms-1\files-1.1\firebase-analytics-11.0.2.aar\74efeec40462abe45a578167cd69a802\AndroidManifest.xml:25:7-26:18
MERGED from [com.google.firebase:firebase-analytics-impl:11.0.2] C:\Users\PDighe\.gradle\caches\transforms-1\files-1.1\firebase-analytics-impl-11.0.2.aar\c6bcf72c1b054d64d39d0537ee15dac3\AndroidManifest.xml:25:7-26:18
MERGED from [com.google.firebase:firebase-analytics-impl:11.0.2] C:\Users\PDighe\.gradle\caches\transforms-1\files-1.1\firebase-analytics-impl-11.0.2.aar\c6bcf72c1b054d64d39d0537ee15dac3\AndroidManifest.xml:25:7-26:18
	android:enabled
		ADDED from [com.google.firebase:firebase-analytics:11.0.2] C:\Users\PDighe\.gradle\caches\transforms-1\files-1.1\firebase-analytics-11.0.2.aar\74efeec40462abe45a578167cd69a802\AndroidManifest.xml:25:90-112
	android:exported
		ADDED from [com.google.firebase:firebase-analytics:11.0.2] C:\Users\PDighe\.gradle\caches\transforms-1\files-1.1\firebase-analytics-11.0.2.aar\74efeec40462abe45a578167cd69a802\AndroidManifest.xml:25:113-137
	android:name
		ADDED from [com.google.firebase:firebase-analytics:11.0.2] C:\Users\PDighe\.gradle\caches\transforms-1\files-1.1\firebase-analytics-11.0.2.aar\74efeec40462abe45a578167cd69a802\AndroidManifest.xml:25:17-89
receiver#com.google.android.gms.measurement.AppMeasurementInstallReferrerReceiver
ADDED from [com.google.firebase:firebase-analytics:11.0.2] C:\Users\PDighe\.gradle\caches\transforms-1\files-1.1\firebase-analytics-11.0.2.aar\74efeec40462abe45a578167cd69a802\AndroidManifest.xml:27:7-31:18
	android:enabled
		ADDED from [com.google.firebase:firebase-analytics:11.0.2] C:\Users\PDighe\.gradle\caches\transforms-1\files-1.1\firebase-analytics-11.0.2.aar\74efeec40462abe45a578167cd69a802\AndroidManifest.xml:27:162-184
	android:exported
		ADDED from [com.google.firebase:firebase-analytics:11.0.2] C:\Users\PDighe\.gradle\caches\transforms-1\files-1.1\firebase-analytics-11.0.2.aar\74efeec40462abe45a578167cd69a802\AndroidManifest.xml:27:185-208
	android:permission
		ADDED from [com.google.firebase:firebase-analytics:11.0.2] C:\Users\PDighe\.gradle\caches\transforms-1\files-1.1\firebase-analytics-11.0.2.aar\74efeec40462abe45a578167cd69a802\AndroidManifest.xml:27:105-161
	android:name
		ADDED from [com.google.firebase:firebase-analytics:11.0.2] C:\Users\PDighe\.gradle\caches\transforms-1\files-1.1\firebase-analytics-11.0.2.aar\74efeec40462abe45a578167cd69a802\AndroidManifest.xml:27:17-104
intent-filter#com.android.vending.INSTALL_REFERRER
ADDED from [com.google.firebase:firebase-analytics:11.0.2] C:\Users\PDighe\.gradle\caches\transforms-1\files-1.1\firebase-analytics-11.0.2.aar\74efeec40462abe45a578167cd69a802\AndroidManifest.xml:28:11-30:27
action#com.android.vending.INSTALL_REFERRER
ADDED from [com.google.firebase:firebase-analytics:11.0.2] C:\Users\PDighe\.gradle\caches\transforms-1\files-1.1\firebase-analytics-11.0.2.aar\74efeec40462abe45a578167cd69a802\AndroidManifest.xml:29:15-76
	android:name
		ADDED from [com.google.firebase:firebase-analytics:11.0.2] C:\Users\PDighe\.gradle\caches\transforms-1\files-1.1\firebase-analytics-11.0.2.aar\74efeec40462abe45a578167cd69a802\AndroidManifest.xml:29:23-74
service#com.google.android.gms.measurement.AppMeasurementService
ADDED from [com.google.firebase:firebase-analytics:11.0.2] C:\Users\PDighe\.gradle\caches\transforms-1\files-1.1\firebase-analytics-11.0.2.aar\74efeec40462abe45a578167cd69a802\AndroidManifest.xml:32:7-137
MERGED from [com.google.firebase:firebase-analytics-impl:11.0.2] C:\Users\PDighe\.gradle\caches\transforms-1\files-1.1\firebase-analytics-impl-11.0.2.aar\c6bcf72c1b054d64d39d0537ee15dac3\AndroidManifest.xml:27:7-137
MERGED from [com.google.firebase:firebase-analytics-impl:11.0.2] C:\Users\PDighe\.gradle\caches\transforms-1\files-1.1\firebase-analytics-impl-11.0.2.aar\c6bcf72c1b054d64d39d0537ee15dac3\AndroidManifest.xml:27:7-137
	android:enabled
		ADDED from [com.google.firebase:firebase-analytics:11.0.2] C:\Users\PDighe\.gradle\caches\transforms-1\files-1.1\firebase-analytics-11.0.2.aar\74efeec40462abe45a578167cd69a802\AndroidManifest.xml:32:88-110
	android:exported
		ADDED from [com.google.firebase:firebase-analytics:11.0.2] C:\Users\PDighe\.gradle\caches\transforms-1\files-1.1\firebase-analytics-11.0.2.aar\74efeec40462abe45a578167cd69a802\AndroidManifest.xml:32:111-135
	android:name
		ADDED from [com.google.firebase:firebase-analytics:11.0.2] C:\Users\PDighe\.gradle\caches\transforms-1\files-1.1\firebase-analytics-11.0.2.aar\74efeec40462abe45a578167cd69a802\AndroidManifest.xml:32:16-87
service#com.google.android.gms.measurement.AppMeasurementJobService
ADDED from [com.google.firebase:firebase-analytics:11.0.2] C:\Users\PDighe\.gradle\caches\transforms-1\files-1.1\firebase-analytics-11.0.2.aar\74efeec40462abe45a578167cd69a802\AndroidManifest.xml:33:7-197
	android:enabled
		ADDED from [com.google.firebase:firebase-analytics:11.0.2] C:\Users\PDighe\.gradle\caches\transforms-1\files-1.1\firebase-analytics-11.0.2.aar\74efeec40462abe45a578167cd69a802\AndroidManifest.xml:33:148-170
	android:exported
		ADDED from [com.google.firebase:firebase-analytics:11.0.2] C:\Users\PDighe\.gradle\caches\transforms-1\files-1.1\firebase-analytics-11.0.2.aar\74efeec40462abe45a578167cd69a802\AndroidManifest.xml:33:171-195
	android:permission
		ADDED from [com.google.firebase:firebase-analytics:11.0.2] C:\Users\PDighe\.gradle\caches\transforms-1\files-1.1\firebase-analytics-11.0.2.aar\74efeec40462abe45a578167cd69a802\AndroidManifest.xml:33:91-147
	android:name
		ADDED from [com.google.firebase:firebase-analytics:11.0.2] C:\Users\PDighe\.gradle\caches\transforms-1\files-1.1\firebase-analytics-11.0.2.aar\74efeec40462abe45a578167cd69a802\AndroidManifest.xml:33:16-90
permission#${applicationId}.permission.C2D_MESSAGE
ADDED from [com.google.firebase:firebase-iid:11.0.2] C:\Users\PDighe\.gradle\caches\transforms-1\files-1.1\firebase-iid-11.0.2.aar\17a9640590974cc17a8a895f34e0599b\AndroidManifest.xml:24:5-109
	android:protectionLevel
		ADDED from [com.google.firebase:firebase-iid:11.0.2] C:\Users\PDighe\.gradle\caches\transforms-1\files-1.1\firebase-iid-11.0.2.aar\17a9640590974cc17a8a895f34e0599b\AndroidManifest.xml:24:72-107
	android:name
		ADDED from [com.google.firebase:firebase-iid:11.0.2] C:\Users\PDighe\.gradle\caches\transforms-1\files-1.1\firebase-iid-11.0.2.aar\17a9640590974cc17a8a895f34e0599b\AndroidManifest.xml:24:17-71
permission#com.google.transporttracker.permission.C2D_MESSAGE
ADDED from [com.google.firebase:firebase-iid:11.0.2] C:\Users\PDighe\.gradle\caches\transforms-1\files-1.1\firebase-iid-11.0.2.aar\17a9640590974cc17a8a895f34e0599b\AndroidManifest.xml:24:5-109
	android:protectionLevel
		ADDED from [com.google.firebase:firebase-iid:11.0.2] C:\Users\PDighe\.gradle\caches\transforms-1\files-1.1\firebase-iid-11.0.2.aar\17a9640590974cc17a8a895f34e0599b\AndroidManifest.xml:24:72-107
	android:name
		ADDED from [com.google.firebase:firebase-iid:11.0.2] C:\Users\PDighe\.gradle\caches\transforms-1\files-1.1\firebase-iid-11.0.2.aar\17a9640590974cc17a8a895f34e0599b\AndroidManifest.xml:24:17-71
uses-permission#${applicationId}.permission.C2D_MESSAGE
ADDED from [com.google.firebase:firebase-iid:11.0.2] C:\Users\PDighe\.gradle\caches\transforms-1\files-1.1\firebase-iid-11.0.2.aar\17a9640590974cc17a8a895f34e0599b\AndroidManifest.xml:26:5-78
	android:name
		ADDED from [com.google.firebase:firebase-iid:11.0.2] C:\Users\PDighe\.gradle\caches\transforms-1\files-1.1\firebase-iid-11.0.2.aar\17a9640590974cc17a8a895f34e0599b\AndroidManifest.xml:26:22-76
uses-permission#com.google.transporttracker.permission.C2D_MESSAGE
ADDED from [com.google.firebase:firebase-iid:11.0.2] C:\Users\PDighe\.gradle\caches\transforms-1\files-1.1\firebase-iid-11.0.2.aar\17a9640590974cc17a8a895f34e0599b\AndroidManifest.xml:26:5-78
	android:name
		ADDED from [com.google.firebase:firebase-iid:11.0.2] C:\Users\PDighe\.gradle\caches\transforms-1\files-1.1\firebase-iid-11.0.2.aar\17a9640590974cc17a8a895f34e0599b\AndroidManifest.xml:26:22-76
receiver#com.google.firebase.iid.FirebaseInstanceIdReceiver
ADDED from [com.google.firebase:firebase-iid:11.0.2] C:\Users\PDighe\.gradle\caches\transforms-1\files-1.1\firebase-iid-11.0.2.aar\17a9640590974cc17a8a895f34e0599b\AndroidManifest.xml:30:9-35:20
	android:exported
		ADDED from [com.google.firebase:firebase-iid:11.0.2] C:\Users\PDighe\.gradle\caches\transforms-1\files-1.1\firebase-iid-11.0.2.aar\17a9640590974cc17a8a895f34e0599b\AndroidManifest.xml:30:85-108
	android:permission
		ADDED from [com.google.firebase:firebase-iid:11.0.2] C:\Users\PDighe\.gradle\caches\transforms-1\files-1.1\firebase-iid-11.0.2.aar\17a9640590974cc17a8a895f34e0599b\AndroidManifest.xml:30:109-169
	android:name
		ADDED from [com.google.firebase:firebase-iid:11.0.2] C:\Users\PDighe\.gradle\caches\transforms-1\files-1.1\firebase-iid-11.0.2.aar\17a9640590974cc17a8a895f34e0599b\AndroidManifest.xml:30:19-84
intent-filter#${applicationId}+com.google.android.c2dm.intent.RECEIVE
ADDED from [com.google.firebase:firebase-iid:11.0.2] C:\Users\PDighe\.gradle\caches\transforms-1\files-1.1\firebase-iid-11.0.2.aar\17a9640590974cc17a8a895f34e0599b\AndroidManifest.xml:31:13-34:29
intent-filter#com.google.android.c2dm.intent.RECEIVE+com.google.transporttracker
ADDED from [com.google.firebase:firebase-iid:11.0.2] C:\Users\PDighe\.gradle\caches\transforms-1\files-1.1\firebase-iid-11.0.2.aar\17a9640590974cc17a8a895f34e0599b\AndroidManifest.xml:31:13-34:29
action#com.google.android.c2dm.intent.RECEIVE
ADDED from [com.google.firebase:firebase-iid:11.0.2] C:\Users\PDighe\.gradle\caches\transforms-1\files-1.1\firebase-iid-11.0.2.aar\17a9640590974cc17a8a895f34e0599b\AndroidManifest.xml:32:17-80
	android:name
		ADDED from [com.google.firebase:firebase-iid:11.0.2] C:\Users\PDighe\.gradle\caches\transforms-1\files-1.1\firebase-iid-11.0.2.aar\17a9640590974cc17a8a895f34e0599b\AndroidManifest.xml:32:25-78
category#${applicationId}
ADDED from [com.google.firebase:firebase-iid:11.0.2] C:\Users\PDighe\.gradle\caches\transforms-1\files-1.1\firebase-iid-11.0.2.aar\17a9640590974cc17a8a895f34e0599b\AndroidManifest.xml:33:17-60
	android:name
		ADDED from [com.google.firebase:firebase-iid:11.0.2] C:\Users\PDighe\.gradle\caches\transforms-1\files-1.1\firebase-iid-11.0.2.aar\17a9640590974cc17a8a895f34e0599b\AndroidManifest.xml:33:27-58
category#com.google.transporttracker
ADDED from [com.google.firebase:firebase-iid:11.0.2] C:\Users\PDighe\.gradle\caches\transforms-1\files-1.1\firebase-iid-11.0.2.aar\17a9640590974cc17a8a895f34e0599b\AndroidManifest.xml:33:17-60
	android:name
		ADDED from [com.google.firebase:firebase-iid:11.0.2] C:\Users\PDighe\.gradle\caches\transforms-1\files-1.1\firebase-iid-11.0.2.aar\17a9640590974cc17a8a895f34e0599b\AndroidManifest.xml:33:27-58
receiver#com.google.firebase.iid.FirebaseInstanceIdInternalReceiver
ADDED from [com.google.firebase:firebase-iid:11.0.2] C:\Users\PDighe\.gradle\caches\transforms-1\files-1.1\firebase-iid-11.0.2.aar\17a9640590974cc17a8a895f34e0599b\AndroidManifest.xml:39:9-119
	android:exported
		ADDED from [com.google.firebase:firebase-iid:11.0.2] C:\Users\PDighe\.gradle\caches\transforms-1\files-1.1\firebase-iid-11.0.2.aar\17a9640590974cc17a8a895f34e0599b\AndroidManifest.xml:39:93-117
	android:name
		ADDED from [com.google.firebase:firebase-iid:11.0.2] C:\Users\PDighe\.gradle\caches\transforms-1\files-1.1\firebase-iid-11.0.2.aar\17a9640590974cc17a8a895f34e0599b\AndroidManifest.xml:39:19-92
service#com.google.firebase.iid.FirebaseInstanceIdService
ADDED from [com.google.firebase:firebase-iid:11.0.2] C:\Users\PDighe\.gradle\caches\transforms-1\files-1.1\firebase-iid-11.0.2.aar\17a9640590974cc17a8a895f34e0599b\AndroidManifest.xml:43:9-47:19
	android:exported
		ADDED from [com.google.firebase:firebase-iid:11.0.2] C:\Users\PDighe\.gradle\caches\transforms-1\files-1.1\firebase-iid-11.0.2.aar\17a9640590974cc17a8a895f34e0599b\AndroidManifest.xml:43:83-106
	android:name
		ADDED from [com.google.firebase:firebase-iid:11.0.2] C:\Users\PDighe\.gradle\caches\transforms-1\files-1.1\firebase-iid-11.0.2.aar\17a9640590974cc17a8a895f34e0599b\AndroidManifest.xml:43:18-82
intent-filter#com.google.firebase.INSTANCE_ID_EVENT
ADDED from [com.google.firebase:firebase-iid:11.0.2] C:\Users\PDighe\.gradle\caches\transforms-1\files-1.1\firebase-iid-11.0.2.aar\17a9640590974cc17a8a895f34e0599b\AndroidManifest.xml:44:13-46:29
	android:priority
		ADDED from [com.google.firebase:firebase-iid:11.0.2] C:\Users\PDighe\.gradle\caches\transforms-1\files-1.1\firebase-iid-11.0.2.aar\17a9640590974cc17a8a895f34e0599b\AndroidManifest.xml:44:28-51
action#com.google.firebase.INSTANCE_ID_EVENT
ADDED from [com.google.firebase:firebase-iid:11.0.2] C:\Users\PDighe\.gradle\caches\transforms-1\files-1.1\firebase-iid-11.0.2.aar\17a9640590974cc17a8a895f34e0599b\AndroidManifest.xml:45:17-79
	android:name
		ADDED from [com.google.firebase:firebase-iid:11.0.2] C:\Users\PDighe\.gradle\caches\transforms-1\files-1.1\firebase-iid-11.0.2.aar\17a9640590974cc17a8a895f34e0599b\AndroidManifest.xml:45:25-77
provider#com.google.firebase.provider.FirebaseInitProvider
ADDED from [com.google.firebase:firebase-common:11.0.2] C:\Users\PDighe\.gradle\caches\transforms-1\files-1.1\firebase-common-11.0.2.aar\95422b5cc8fe55cb1bf29e73fe87693c\AndroidManifest.xml:6:9-194
	android:authorities
		ADDED from [com.google.firebase:firebase-common:11.0.2] C:\Users\PDighe\.gradle\caches\transforms-1\files-1.1\firebase-common-11.0.2.aar\95422b5cc8fe55cb1bf29e73fe87693c\AndroidManifest.xml:6:19-78
	android:exported
		ADDED from [com.google.firebase:firebase-common:11.0.2] C:\Users\PDighe\.gradle\caches\transforms-1\files-1.1\firebase-common-11.0.2.aar\95422b5cc8fe55cb1bf29e73fe87693c\AndroidManifest.xml:6:144-168
	android:initOrder
		ADDED from [com.google.firebase:firebase-common:11.0.2] C:\Users\PDighe\.gradle\caches\transforms-1\files-1.1\firebase-common-11.0.2.aar\95422b5cc8fe55cb1bf29e73fe87693c\AndroidManifest.xml:6:169-192
	android:name
		ADDED from [com.google.firebase:firebase-common:11.0.2] C:\Users\PDighe\.gradle\caches\transforms-1\files-1.1\firebase-common-11.0.2.aar\95422b5cc8fe55cb1bf29e73fe87693c\AndroidManifest.xml:6:79-143
meta-data#com.google.android.gms.version
ADDED from [com.google.android.gms:play-services-basement:11.0.2] C:\Users\PDighe\.gradle\caches\transforms-1\files-1.1\play-services-basement-11.0.2.aar\295935c265f5256c7bdec92ebfb86b54\AndroidManifest.xml:20:9-121
	android:value
		ADDED from [com.google.android.gms:play-services-basement:11.0.2] C:\Users\PDighe\.gradle\caches\transforms-1\files-1.1\play-services-basement-11.0.2.aar\295935c265f5256c7bdec92ebfb86b54\AndroidManifest.xml:20:66-119
	android:name
		ADDED from [com.google.android.gms:play-services-basement:11.0.2] C:\Users\PDighe\.gradle\caches\transforms-1\files-1.1\play-services-basement-11.0.2.aar\295935c265f5256c7bdec92ebfb86b54\AndroidManifest.xml:20:20-65
